C:\Users\vasudevaa\Desktop\git\OnlineQuiz\src\main\java\com\jwt\Dao\EmployeeDaoImpl.java
C:\Users\vasudevaa\Desktop\git\OnlineQuiz\src\main\java\com\jwt\Service\EmployeeServiceImpl.java
C:\Users\vasudevaa\Desktop\git\OnlineQuiz\src\main\java\com\jwt\model\Employee.java
C:\Users\vasudevaa\Desktop\git\OnlineQuiz\src\main\java\com\jwt\Service\EmployeeService.java
C:\Users\vasudevaa\Desktop\git\OnlineQuiz\src\main\java\com\jwt\model\Question.java
C:\Users\vasudevaa\Desktop\git\OnlineQuiz\src\main\java\com\jwt\Dao\EmployeeDao.java
C:\Users\vasudevaa\Desktop\git\OnlineQuiz\src\main\java\com\jwt\controller\EmpController.java
C:\Users\vasudevaa\Desktop\git\OnlineQuiz\src\main\java\com\jwt\pdf\AbstractITextPdfView.java
C:\Users\vasudevaa\Desktop\git\OnlineQuiz\src\main\java\com\jwt\pdf\UserPDFView.java
C:\Users\vasudevaa\Desktop\git\OnlineQuiz\src\main\java\com\jwt\validator\EmployeeValidator.java
